  % Total    % Received % Xferd  Average Speed   Time    Time     Time  Current
                                 Dload  Upload   Total   Spent    Left  Speed
  0     0    0     0    0     0      0      0 --:--:-- --:--:-- --:--:--     0{"count":240,"next":"https://api.octopus.energy/v1/electricity-meter-points/2700003645222/meters/19L2761452/consumption/?page=2","previous":null,"results":[{"consumption":1.836,"interval_start":"2020-05-08T00:00:00+01:00","interval_end":"2020-05-08T00:30:00+01:00"},{"consumption":0.146,"interval_start":"2020-05-07T23:30:00+01:00","interval_end":"2020-05-08T00:00:00+01:00"},{"consumption":0.285,"interval_start":"2020-05-07T23:00:00+01:00","interval_end":"2020-05-07T23:30:00+01:00"},{"consumption":0.197,"interval_start":"2020-05-07T22:30:00+01:00","interval_end":"2020-05-07T23:00:00+01:00"},{"consumption":0.143,"interval_start":"2020-05-07T22:00:00+01:00","interval_end":"2020-05-07T22:30:00+01:00"},{"consumption":0.201,"interval_start":"2020-05-07T21:30:00+01:00","interval_end":"2020-05-07T22:00:00+01:00"},{"consumption":0.513,"interval_start":"2020-05-07T21:00:00+01:00","interval_end":"2020-05-07T21:30:00+01:00"},{"consumption":0.24,"interval_start":"2020-05-07T20:30:00+01:00","interval_end":"2020-05-07T21:00:00+01:00"},{"consumption":0.81,"interval_start":"2020-05-07T20:00:00+01:00","interval_end":"2020-05-07T20:30:00+01:00"},{"consumption":0.074,"interval_start":"2020-05-07T19:30:00+01:00","interval_end":"2020-05-07T20:00:00+01:00"},{"consumption":0.121,"interval_start":"2020-05-07T19:00:00+01:00","interval_end":"2020-05-07T19:30:00+01:00"},{"consumption":0.068,"interval_start":"2020-05-07T18:30:00+01:00","interval_end":"2020-05-07T19:00:00+01:00"},{"consumption":0.138,"interval_start":"2020-05-07T18:00:00+01:00","interval_end":"2020-05-07T18:30:00+01:00"},{"consumption":0.133,"interval_start":"2020-05-07T17:30:00+01:00","interval_end":"2020-05-07T18:00:00+01:00"},{"consumption":0.101,"interval_start":"2020-05-07T17:00:00+01:00","interval_end":"2020-05-07T17:30:00+01:00"},{"consumption":0.337,"interval_start":"2020-05-07T16:30:00+01:00","interval_end":"2020-05-07T17:00:00+01:00"},{"consumption":0.171,"interval_start":"2020-05-07T16:00:00+01:00","interval_end":"2020-05-07T16:30:00+01:00"},{"consumption":0.156,"interval_start":"2020-05-07T15:30:00+01:00","interval_end":"2020-05-07T16:00:00+01:00"},{"consumption":0.083,"interval_start":"2020-05-07T15:00:00+01:00","interval_end":"2020-05-07T15:30:00+01:00"},{"consumption":0.215,"interval_start":"2020-05-07T14:30:00+01:00","interval_end":"2020-05-07T15:00:00+01:00"},{"consumption":0.16,"interval_start":"2020-05-07T14:00:00+01:00","interval_end":"2020-05-07T14:30:00+01:00"},{"consumption":0.166,"interval_start":"2020-05-07T13:30:00+01:00","interval_end":"2020-05-07T14:00:00+01:00"},{"consumption":0.208,"interval_start":"2020-05-07T13:00:00+01:00","interval_end":"2020-05-07T13:30:00+01:00"},{"consumption":0.283,"interval_start":"2020-05-07T12:30:00+01:00","interval_end":"2020-05-07T13:00:00+01:00"},{"consumption":0.801,"interval_start":"2020-05-07T12:00:00+01:00","interval_end":"2020-05-07T12:30:00+01:00"},{"consumption":0.632,"interval_start":"2020-05-07T11:30:00+01:00","interval_end":"2020-05-07T12:00:00+01:00"},{"consumption":0.147,"interval_start":"2020-05-07T11:00:00+01:00","interval_end":"2020-05-07T11:30:00+01:00"},{"consumption":0.094,"interval_start":"2020-05-07T10:30:00+01:00","interval_end":"2020-05-07T11:00:00+01:00"},{"consumption":0.307,"interval_start":"2020-05-07T10:00:00+01:00","interval_end":"2020-05-07T10:30:00+01:00"},{"consumption":0.144,"interval_start":"2020-05-07T09:30:00+01:00","interval_end":"2020-05-07T10:00:00+01:00"},{"consumption":0.174,"interval_start":"2020-05-07T09:00:00+01:00","interval_end":"2020-05-07T09:30:00+01:00"},{"consumption":0.124,"interval_start":"2020-05-07T08:30:00+01:00","interval_end":"2020-05-07T09:00:00+01:00"},{"consumption":0.111,"interval_start":"2020-05-07T08:00:00+01:00","interval_end":"2020-05-07T08:30:00+01:00"},{"consumption":0.042,"interval_start":"2020-05-07T07:30:00+01:00","interval_end":"2020-05-07T08:00:00+01:00"},{"consumption":0.097,"interval_start":"2020-05-07T07:00:00+01:00","interval_end":"2020-05-07T07:30:00+01:00"},{"consumption":0.055,"interval_start":"2020-05-07T06:30:00+01:00","interval_end":"2020-05-07T07:00:00+01:00"},{"consumption":0.09,"interval_start":"2020-05-07T06:00:00+01:00","interval_end":"2020-05-07T06:30:00+01:00"},{"consumption":0.13,"interval_start":"2020-05-07T05:30:00+01:00","interval_end":"2020-05-07T06:00:00+01:00"},{"consumption":0.135,"interval_start":"2020-05-07T05:00:00+01:00","interval_end":"2020-05-07T05:30:00+01:00"},{"consumption":0.066,"interval_start":"2020-05-07T04:30:00+01:00","interval_end":"2020-05-07T05:00:00+01:00"},{"consumption":0.111,"interval_start":"2020-05-07T04:00:00+01:00","interval_end":"2020-05-07T04:30:00+01:00"},{"consumption":0.115,"interval_start":"2020-05-07T03:30:00+01:00","interval_end":"2020-05-07T04:00:00+01:00"},{"consumption":0.113,"interval_start":"2020-05-07T03:00:00+01:00","interval_end":"2020-05-07T03:30:00+01:00"},{"consumption":0.119,"interval_start":"2020-05-07T02:30:00+01:00","interval_end":"2020-05-07T03:00:00+01:00"},{"consumption":0.155,"interval_start":"2020-05-07T02:00:00+01:00","interval_end":"2020-05-07T02:30:00+01:00"},{"consumption":0.227,"interval_start":"2020-05-07T01:30:00+01:00","interval_end":"2020-05-07T02:00:00+01:00"},{"consumption":0.552,"interval_start":"2020-05-07T01:00:00+01:00","interval_end":"2020-05-07T01:30:00+01:00"},{"consumption":1.112,"interval_start":"2020-05-07T00:30:00+01:00","interval_end":"2020-05-07T01:00:00+01:00"},{"consumption":0.116,"interval_start":"2020-05-07T00:00:00+01:00","interval_end":"2020-05-07T00:30:00+01:00"},{"consumption":0.184,"interval_start":"2020-05-06T23:30:00+01:00","interval_end":"2020-05-07T00:00:00+01:00"},{"consumption":0.39,"interval_start":"2020-05-06T23:00:00+01:00","interval_end":"2020-05-06T23:30:00+01:00"},{"consumption":0.344,"interval_start":"2020-05-06T22:30:00+01:00","interval_end":"2020-05-06T23:00:00+01:00"},{"consumption":0.445,"interval_start":"2020-05-06T22:00:00+01:00","interval_end":"2020-05-06T22:30:00+01:00"},{"consumption":1.08,"interval_start":"2020-05-06T21:30:00+01:00","interval_end":"2020-05-06T22:00:00+01:00"},{"consumption":0.331,"interval_start":"2020-05-06T21:00:00+01:00","interval_end":"2020-05-06T21:30:00+01:00"},{"consumption":0.547,"interval_start":"2020-05-06T20:30:00+01:00","interval_end":"2020-05-06T21:00:00+01:00"},{"consumption":0.837,"interval_start":"2020-05-06T20:00:00+01:00","interval_end":"2020-05-06T20:30:00+01:00"},{"consumption":0.494,"interval_start":"2020-05-06T19:30:00+01:00","interval_end":"2020-05-06T20:00:00+01:00"},{"consumption":0.151,"interval_start":"2020-05-06T19:00:00+01:00","interval_end":"2020-05-06T19:30:00+01:00"},{"consumption":0.169,"interval_start":"2020-05-06T18:30:00+01:00","interval_end":"2020-05-06T19:00:00+01:00"},{"consumption":0.25,"interval_start":"2020-05-06T18:00:00+01:00","interval_end":"2020-05-06T18:30:00+01:00"},{"consumption":0.197,"interval_start":"2020-05-06T17:30:00+01:00","interval_end":"2020-05-06T18:00:00+01:00"},{"consumption":0.16,"interval_start":"2020-05-06T17:00:00+01:00","interval_end":"2020-05-06T17:30:00+01:00"},{"consumption":0.108,"interval_start":"2020-05-06T16:30:00+01:00","interval_end":"2020-05-06T17:00:00+01:00"},{"consumption":0.188,"interval_start":"2020-05-06T16:00:00+01:00","interval_end":"2020-05-06T16:30:00+01:00"},{"consumption":0.29,"interval_start":"2020-05-06T15:30:00+01:00","interval_end":"2020-05-06T16:00:00+01:00"},{"consumption":0.127,"interval_start":"2020-05-06T15:00:00+01:00","interval_end":"2020-05-06T15:30:00+01:00"},{"consumption":0.178,"interval_start":"2020-05-06T14:30:00+01:00","interval_end":"2020-05-06T15:00:00+01:00"},{"consumption":0.189,"interval_start":"2020-05-06T14:00:00+01:00","interval_end":"2020-05-06T14:30:00+01:00"},{"consumption":0.08,"interval_start":"2020-05-06T13:30:00+01:00","interval_end":"2020-05-06T14:00:00+01:00"},{"consumption":0.191,"interval_start":"2020-05-06T13:00:00+01:00","interval_end":"2020-05-06T13:30:00+01:00"},{"consumption":0.155,"interval_start":"2020-05-06T12:30:00+01:00","interval_end":"2020-05-06T13:00:00+01:00"},{"consumption":0.201,"interval_start":"2020-05-06T12:00:00+01:00","interval_end":"2020-05-06T12:30:00+01:00"},{"consumption":0.100 11143  100 11143    0     0  47216      0 --:--:-- --:--:-- --:--:-- 47216
185,"interval_start":"2020-05-06T11:30:00+01:00","interval_end":"2020-05-06T12:00:00+01:00"},{"consumption":0.187,"interval_start":"2020-05-06T11:00:00+01:00","interval_end":"2020-05-06T11:30:00+01:00"},{"consumption":0.192,"interval_start":"2020-05-06T10:30:00+01:00","interval_end":"2020-05-06T11:00:00+01:00"},{"consumption":0.185,"interval_start":"2020-05-06T10:00:00+01:00","interval_end":"2020-05-06T10:30:00+01:00"},{"consumption":0.3,"interval_start":"2020-05-06T09:30:00+01:00","interval_end":"2020-05-06T10:00:00+01:00"},{"consumption":0.201,"interval_start":"2020-05-06T09:00:00+01:00","interval_end":"2020-05-06T09:30:00+01:00"},{"consumption":0.113,"interval_start":"2020-05-06T08:30:00+01:00","interval_end":"2020-05-06T09:00:00+01:00"},{"consumption":0.038,"interval_start":"2020-05-06T08:00:00+01:00","interval_end":"2020-05-06T08:30:00+01:00"},{"consumption":0.123,"interval_start":"2020-05-06T07:30:00+01:00","interval_end":"2020-05-06T08:00:00+01:00"},{"consumption":0.064,"interval_start":"2020-05-06T07:00:00+01:00","interval_end":"2020-05-06T07:30:00+01:00"},{"consumption":0.121,"interval_start":"2020-05-06T06:30:00+01:00","interval_end":"2020-05-06T07:00:00+01:00"},{"consumption":0.044,"interval_start":"2020-05-06T06:00:00+01:00","interval_end":"2020-05-06T06:30:00+01:00"},{"consumption":0.101,"interval_start":"2020-05-06T05:30:00+01:00","interval_end":"2020-05-06T06:00:00+01:00"},{"consumption":0.097,"interval_start":"2020-05-06T05:00:00+01:00","interval_end":"2020-05-06T05:30:00+01:00"},{"consumption":0.037,"interval_start":"2020-05-06T04:30:00+01:00","interval_end":"2020-05-06T05:00:00+01:00"},{"consumption":0.119,"interval_start":"2020-05-06T04:00:00+01:00","interval_end":"2020-05-06T04:30:00+01:00"},{"consumption":0.063,"interval_start":"2020-05-06T03:30:00+01:00","interval_end":"2020-05-06T04:00:00+01:00"},{"consumption":0.129,"interval_start":"2020-05-06T03:00:00+01:00","interval_end":"2020-05-06T03:30:00+01:00"},{"consumption":0.111,"interval_start":"2020-05-06T02:30:00+01:00","interval_end":"2020-05-06T03:00:00+01:00"},{"consumption":0.111,"interval_start":"2020-05-06T02:00:00+01:00","interval_end":"2020-05-06T02:30:00+01:00"},{"consumption":0.046,"interval_start":"2020-05-06T01:30:00+01:00","interval_end":"2020-05-06T02:00:00+01:00"},{"consumption":0.123,"interval_start":"2020-05-06T01:00:00+01:00","interval_end":"2020-05-06T01:30:00+01:00"},{"consumption":0.146,"interval_start":"2020-05-06T00:30:00+01:00","interval_end":"2020-05-06T01:00:00+01:00"},{"consumption":0.95,"interval_start":"2020-05-05T00:00:00+01:00","interval_end":"2020-05-05T00:30:00+01:00"},{"consumption":0.615,"interval_start":"2020-05-04T23:30:00+01:00","interval_end":"2020-05-05T00:00:00+01:00"},{"consumption":0.491,"interval_start":"2020-05-04T23:00:00+01:00","interval_end":"2020-05-04T23:30:00+01:00"},{"consumption":0.227,"interval_start":"2020-05-04T22:30:00+01:00","interval_end":"2020-05-04T23:00:00+01:00"}]}