{"count":58843,"next":"https://api.octopus.energy/v1/products/AGILE-18-02-21/electricity-tariffs/E-1R-AGILE-18-02-21-H/standard-unit-rates/?page=2","previous":null,"results":[{"value_exc_vat":1.68,"value_inc_vat":1.764,"valid_from":"2020-05-10T21:30:00Z","valid_to":"2020-05-10T22:00:00Z"},{"value_exc_vat":4.39,"value_inc_vat":4.6095,"valid_from":"2020-05-10T21:00:00Z","valid_to":"2020-05-10T21:30:00Z"},{"value_exc_vat":3.3,"value_inc_vat":3.465,"valid_from":"2020-05-10T20:30:00Z","valid_to":"2020-05-10T21:00:00Z"},{"value_exc_vat":5.46,"value_inc_vat":5.733,"valid_from":"2020-05-10T20:00:00Z","valid_to":"2020-05-10T20:30:00Z"},{"value_exc_vat":5.04,"value_inc_vat":5.292,"valid_from":"2020-05-10T19:30:00Z","valid_to":"2020-05-10T20:00:00Z"},{"value_exc_vat":5.46,"value_inc_vat":5.733,"valid_from":"2020-05-10T19:00:00Z","valid_to":"2020-05-10T19:30:00Z"},{"value_exc_vat":4.85,"value_inc_vat":5.0925,"valid_from":"2020-05-10T18:30:00Z","valid_to":"2020-05-10T19:00:00Z"},{"value_exc_vat":4.85,"value_inc_vat":5.0925,"valid_from":"2020-05-10T18:00:00Z","valid_to":"2020-05-10T18:30:00Z"},{"value_exc_vat":17.54,"value_inc_vat":18.417,"valid_from":"2020-05-10T17:30:00Z","valid_to":"2020-05-10T18:00:00Z"},{"value_exc_vat":17.88,"value_inc_vat":18.774,"valid_from":"2020-05-10T17:00:00Z","valid_to":"2020-05-10T17:30:00Z"},{"value_exc_vat":17.02,"value_inc_vat":17.871,"valid_from":"2020-05-10T16:30:00Z","valid_to":"2020-05-10T17:00:00Z"},{"value_exc_vat":14.84,"value_inc_vat":15.582,"valid_from":"2020-05-10T16:00:00Z","valid_to":"2020-05-10T16:30:00Z"},{"value_exc_vat":16.62,"value_inc_vat":17.451,"valid_from":"2020-05-10T15:30:00Z","valid_to":"2020-05-10T16:00:00Z"},{"value_exc_vat":13.01,"value_inc_vat":13.6605,"valid_from":"2020-05-10T15:00:00Z","valid_to":"2020-05-10T15:30:00Z"},{"value_exc_vat":2.52,"value_inc_vat":2.646,"valid_from":"2020-05-10T14:30:00Z","valid_to":"2020-05-10T15:00:00Z"},{"value_exc_vat":1.16,"value_inc_vat":1.218,"valid_from":"2020-05-10T14:00:00Z","valid_to":"2020-05-10T14:30:00Z"},{"value_exc_vat":1.68,"value_inc_vat":1.764,"valid_from":"2020-05-10T13:30:00Z","valid_to":"2020-05-10T14:00:00Z"},{"value_exc_vat":2.02,"value_inc_vat":2.121,"valid_from":"2020-05-10T13:00:00Z","valid_to":"2020-05-10T13:30:00Z"},{"value_exc_vat":2.31,"value_inc_vat":2.4255,"valid_from":"2020-05-10T12:30:00Z","valid_to":"2020-05-10T13:00:00Z"},{"value_exc_vat":2.94,"value_inc_vat":3.087,"valid_from":"2020-05-10T12:00:00Z","valid_to":"2020-05-10T12:30:00Z"},{"value_exc_vat":2.94,"value_inc_vat":3.087,"valid_from":"2020-05-10T11:30:00Z","valid_to":"2020-05-10T12:00:00Z"},{"value_exc_vat":1.07,"value_inc_vat":1.1235,"valid_from":"2020-05-10T11:00:00Z","valid_to":"2020-05-10T11:30:00Z"},{"value_exc_vat":2.98,"value_inc_vat":3.129,"valid_from":"2020-05-10T10:30:00Z","valid_to":"2020-05-10T11:00:00Z"},{"value_exc_vat":2.04,"value_inc_vat":2.142,"valid_from":"2020-05-10T10:00:00Z","valid_to":"2020-05-10T10:30:00Z"},{"value_exc_vat":2.94,"value_inc_vat":3.087,"valid_from":"2020-05-10T09:30:00Z","valid_to":"2020-05-10T10:00:00Z"},{"value_exc_vat":2.04,"value_inc_vat":2.142,"valid_from":"2020-05-10T09:00:00Z","valid_to":"2020-05-10T09:30:00Z"},{"value_exc_vat":2.94,"value_inc_vat":3.087,"valid_from":"2020-05-10T08:30:00Z","valid_to":"2020-05-10T09:00:00Z"},{"value_exc_vat":1.47,"value_inc_vat":1.5435,"valid_from":"2020-05-10T08:00:00Z","valid_to":"2020-05-10T08:30:00Z"},{"value_exc_vat":1.74,"value_inc_vat":1.827,"valid_from":"2020-05-10T07:30:00Z","valid_to":"2020-05-10T08:00:00Z"},{"value_exc_vat":1.05,"value_inc_vat":1.1025,"valid_from":"2020-05-10T07:00:00Z","valid_to":"2020-05-10T07:30:00Z"},{"value_exc_vat":0.0,"value_inc_vat":0.0,"valid_from":"2020-05-10T06:30:00Z","valid_to":"2020-05-10T07:00:00Z"},{"value_exc_vat":0.27,"value_inc_vat":0.2835,"valid_from":"2020-05-10T06:00:00Z","valid_to":"2020-05-10T06:30:00Z"},{"value_exc_vat":0.0,"value_inc_vat":0.0,"valid_from":"2020-05-10T05:30:00Z","valid_to":"2020-05-10T06:00:00Z"},{"value_exc_vat":0.8,"value_inc_vat":0.84,"valid_from":"2020-05-10T05:00:00Z","valid_to":"2020-05-10T05:30:00Z"},{"value_exc_vat":0.23,"value_inc_vat":0.2415,"valid_from":"2020-05-10T04:30:00Z","valid_to":"2020-05-10T05:00:00Z"},{"value_exc_vat":1.68,"value_inc_vat":1.764,"valid_from":"2020-05-10T04:00:00Z","valid_to":"2020-05-10T04:30:00Z"},{"value_exc_vat":2.31,"value_inc_vat":2.4255,"valid_from":"2020-05-10T03:30:00Z","valid_to":"2020-05-10T04:00:00Z"},{"value_exc_vat":2.9,"value_inc_vat":3.045,"valid_from":"2020-05-10T03:00:00Z","valid_to":"2020-05-10T03:30:00Z"},{"value_exc_vat":2.71,"value_inc_vat":2.8455,"valid_from":"2020-05-10T02:30:00Z","valid_to":"2020-05-10T03:00:00Z"},{"value_exc_vat":3.68,"value_inc_vat":3.864,"valid_from":"2020-05-10T02:00:00Z","valid_to":"2020-05-10T02:30:00Z"},{"value_exc_vat":3.04,"value_inc_vat":3.192,"valid_from":"2020-05-10T01:30:00Z","valid_to":"2020-05-10T02:00:00Z"},{"value_exc_vat":5.04,"value_inc_vat":5.292,"valid_from":"2020-05-10T01:00:00Z","valid_to":"2020-05-10T01:30:00Z"},{"value_exc_vat":4.18,"value_inc_vat":4.389,"valid_from":"2020-05-10T00:30:00Z","valid_to":"2020-05-10T01:00:00Z"},{"value_exc_vat":4.7,"value_inc_vat":4.935,"valid_from":"2020-05-10T00:00:00Z","valid_to":"2020-05-10T00:30:00Z"},{"value_exc_vat":4.81,"value_inc_vat":5.0505,"valid_from":"2020-05-09T23:30:00Z","valid_to":"2020-05-10T00:00:00Z"},{"value_exc_vat":6.09,"value_inc_vat":6.3945,"valid_from":"2020-05-09T23:00:00Z","valid_to":"2020-05-09T23:30:00Z"},{"value_exc_vat":6.66,"value_inc_vat":6.993,"valid_from":"2020-05-09T22:30:00Z","valid_to":"2020-05-09T23:00:00Z"},{"value_exc_vat":5.46,"value_inc_vat":5.733,"valid_from":"2020-05-09T22:00:00Z","valid_to":"2020-05-09T22:30:00Z"},{"value_exc_vat":4.83,"value_inc_vat":5.0715,"valid_from":"2020-05-09T21:30:00Z","valid_to":"2020-05-09T22:00:00Z"},{"value_exc_vat":7.14,"value_inc_vat":7.497,"valid_from":"2020-05-09T21:00:00Z","valid_to":"2020-05-09T21:30:00Z"},{"value_exc_vat":5.0,"value_inc_vat":5.25,"valid_from":"2020-05-09T20:30:00Z","valid_to":"2020-05-09T21:00:00Z"},{"value_exc_vat":7.14,"value_inc_vat":7.497,"valid_from":"2020-05-09T20:00:00Z","valid_to":"2020-05-09T20:30:00Z"},{"value_exc_vat":6.72,"value_inc_vat":7.056,"valid_from":"2020-05-09T19:30:00Z","valid_to":"2020-05-09T20:00:00Z"},{"value_exc_vat":7.64,"value_inc_vat":8.022,"valid_from":"2020-05-09T19:00:00Z","valid_to":"2020-05-09T19:30:00Z"},{"value_exc_vat":7.39,"value_inc_vat":7.7595,"valid_from":"2020-05-09T18:30:00Z","valid_to":"2020-05-09T19:00:00Z"},{"value_exc_vat":8.23,"value_inc_vat":8.6415,"valid_from":"2020-05-09T18:00:00Z","valid_to":"2020-05-09T18:30:00Z"},{"value_exc_vat":20.4,"value_inc_vat":21.42,"valid_from":"2020-05-09T17:30:00Z","valid_to":"2020-05-09T18:00:00Z"},{"value_exc_vat":19.98,"value_inc_vat":20.979,"valid_from":"2020-05-09T17:00:00Z","valid_to":"2020-05-09T17:30:00Z"},{"value_exc_vat":20.4,"value_inc_vat":21.42,"valid_from":"2020-05-09T16:30:00Z","valid_to":"2020-05-09T17:00:00Z"},{"value_exc_vat":18.51,"value_inc_vat":19.4355,"valid_from":"2020-05-09T16:00:00Z","valid_to":"2020-05-09T16:30:00Z"},{"value_exc_vat":19.85,"value_inc_vat":20.8425,"valid_from":"2020-05-09T15:30:00Z","valid_to":"2020-05-09T16:00:00Z"},{"value_exc_vat":17.29,"value_inc_vat":18.1545,"valid_from":"2020-05-09T15:00:00Z","valid_to":"2020-05-09T15:30:00Z"},{"value_exc_vat":4.79,"value_inc_vat":5.0295,"valid_from":"2020-05-09T14:30:00Z","valid_to":"2020-05-09T15:00:00Z"},{"value_exc_vat":4.43,"value_inc_vat":4.6515,"valid_from":"2020-05-09T14:00:00Z","valid_to":"2020-05-09T14:30:00Z"},{"value_exc_vat":4.2,"value_inc_vat":4.41,"valid_from":"2020-05-09T13:30:00Z","valid_to":"2020-05-09T14:00:00Z"},{"value_exc_vat":4.41,"value_inc_vat":4.6305,"valid_from":"2020-05-09T13:00:00Z","valid_to":"2020-05-09T13:30:00Z"},{"value_exc_vat":5.46,"value_inc_vat":5.733,"valid_from":"2020-05-09T12:30:00Z","valid_to":"2020-05-09T13:00:00Z"},{"value_exc_vat":5.8,"value_inc_vat":6.09,"valid_from":"2020-05-09T12:00:00Z","valid_to":"2020-05-09T12:30:00Z"},{"value_exc_vat":5.92,"value_inc_vat":6.216,"valid_from":"2020-05-09T11:30:00Z","valid_to":"2020-05-09T12:00:00Z"},{"value_exc_vat":6.3,"value_inc_vat":6.615,"valid_from":"2020-05-09T10:30:00Z","valid_to":"2020-05-09T11:00:00Z"},{"value_exc_vat":6.13,"value_inc_vat":6.4365,"valid_from":"2020-05-09T10:00:00Z","valid_to":"2020-05-09T10:30:00Z"},{"value_exc_vat":6.59,"value_inc_vat":6.9195,"valid_from":"2020-05-09T09:30:00Z","valid_to":"2020-05-09T10:00:00Z"},{"value_exc_vat":7.06,"value_inc_vat":7.413,"valid_from":"2020-05-09T09:00:00Z","valid_to":"2020-05-09T09:30:00Z"},{"value_exc_vat":6.76,"value_inc_vat":7.098,"valid_from":"2020-05-09T08:30:00Z","valid_to":"2020-05-09T09:00:00Z"},{"value_exc_vat":6.72,"value_inc_vat":7.056,"valid_from":"2020-05-09T08:00:00Z","valid_to":"2020-05-09T08:30:00Z"},{"value_exc_vat":6.72,"value_inc_vat":7.056,"valid_from":"2020-05-09T07:30:00Z","valid_to":"2020-05-09T08:00:00Z"},{"value_exc_vat":6.51,"value_inc_vat":6.8355,"valid_from":"2020-05-09T07:00:00Z","valid_to":"2020-05-09T07:30:00Z"},{"value_exc_vat":4.87,"value_inc_vat":5.1135,"valid_from":"2020-05-09T06:30:00Z","valid_to":"2020-05-09T07:00:00Z"},{"value_exc_vat":5.0,"value_inc_vat":5.25,"valid_from":"2020-05-09T06:00:00Z","valid_to":"2020-05-09T06:30:00Z"},{"value_exc_vat":5.54,"value_inc_vat":5.817,"valid_from":"2020-05-09T05:30:00Z","valid_to":"2020-05-09T06:00:00Z"},{"value_exc_vat":4.83,"value_inc_vat":5.0715,"valid_from":"2020-05-09T05:00:00Z","valid_to":"2020-05-09T05:30:00Z"},{"value_exc_vat":5.12,"value_inc_vat":5.376,"valid_from":"2020-05-09T04:30:00Z","valid_to":"2020-05-09T05:00:00Z"},{"value_exc_vat":5.46,"value_inc_vat":5.733,"valid_from":"2020-05-09T04:00:00Z","valid_to":"2020-05-09T04:30:00Z"},{"value_exc_vat":5.04,"value_inc_vat":5.292,"valid_from":"2020-05-09T03:30:00Z","valid_to":"2020-05-09T04:00:00Z"},{"value_exc_vat":5.56,"value_inc_vat":5.838,"valid_from":"2020-05-09T03:00:00Z","valid_to":"2020-05-09T03:30:00Z"},{"value_exc_vat":4.98,"value_inc_vat":5.229,"valid_from":"2020-05-09T02:30:00Z","valid_to":"2020-05-09T03:00:00Z"},{"value_exc_vat":5.56,"value_inc_vat":5.838,"valid_from":"2020-05-09T02:00:00Z","valid_to":"2020-05-09T02:30:00Z"},{"value_exc_vat":5.96,"value_inc_vat":6.258,"valid_from":"2020-05-09T01:30:00Z","valid_to":"2020-05-09T02:00:00Z"},{"value_exc_vat":6.09,"value_inc_vat":6.3945,"valid_from":"2020-05-09T01:00:00Z","valid_to":"2020-05-09T01:30:00Z"},{"value_exc_vat":6.34,"value_inc_vat":6.657,"valid_from":"2020-05-09T00:30:00Z","valid_to":"2020-05-09T01:00:00Z"},{"value_exc_vat":6.37,"value_inc_vat":6.6885,"valid_from":"2020-05-09T00:00:00Z","valid_to":"2020-05-09T00:30:00Z"},{"value_exc_vat":6.95,"value_inc_vat":7.2975,"valid_from":"2020-05-08T23:30:00Z","valid_to":"2020-05-09T00:00:00Z"},{"value_exc_vat":6.72,"value_inc_vat":7.056,"valid_from":"2020-05-08T23:00:00Z","valid_to":"2020-05-08T23:30:00Z"},{"value_exc_vat":6.45,"value_inc_vat":6.7725,"valid_from":"2020-05-08T22:30:00Z","valid_to":"2020-05-08T23:00:00Z"},{"value_exc_vat":7.14,"value_inc_vat":7.497,"valid_from":"2020-05-08T22:00:00Z","valid_to":"2020-05-08T22:30:00Z"},{"value_exc_vat":6.3,"value_inc_vat":6.615,"valid_from":"2020-05-08T21:30:00Z","valid_to":"2020-05-08T22:00:00Z"},{"value_exc_vat":7.35,"value_inc_vat":7.7175,"valid_from":"2020-05-08T21:00:00Z","valid_to":"2020-05-08T21:30:00Z"},{"value_exc_vat":6.3,"value_inc_vat":6.615,"valid_from":"2020-05-08T20:30:00Z","valid_to":"2020-05-08T21:00:00Z"},{"value_exc_vat":7.56,"value_inc_vat":7.938,"valid_from":"2020-05-08T20:00:00Z","valid_to":"2020-05-08T20:30:00Z"}]}